<svg width="183" height="40" viewBox="0 0 183 40" fill="none" xmlns="http://www.w3.org/2000/svg">
<g clip-path="url(#clip0)">
<path d="M89.5025 23.3628C92.1364 19.6713 94.7704 15.9798 97.4043 12.2882C98.7212 10.4678 104.293 9.15296 106.015 10.4678C106.471 10.8217 106.42 12.4905 106.015 13.1479C103.736 16.6877 101.305 20.1264 98.7719 23.464C97.8602 24.6776 97.8095 25.4867 98.7212 26.7509C101.71 30.8976 104.597 35.1454 107.889 39.8989C104.496 39.8989 101.507 40 98.5693 39.8483C98.0121 39.7977 97.4549 38.938 97.0497 38.3312C94.5171 34.5891 91.9845 30.847 88.996 27.2061C88.996 31.3527 88.996 35.4488 88.996 39.9494C86.3114 39.9494 83.8801 40.0506 81.4995 39.8483C81.0436 39.7977 80.3851 38.3818 80.3851 37.5727C80.2838 29.8862 80.3345 22.2503 80.3345 14.5638C80.3345 10.5183 80.3851 6.47281 80.3345 2.4273C80.2838 0.80909 80.9929 0.151694 82.5632 0.151694C90.313 0.202263 88.8441 -0.505702 88.9454 6.11883C88.996 11.8331 88.9454 17.4968 88.9454 23.2111C89.0467 23.2617 89.2493 23.3123 89.5025 23.3628Z" fill="#F13C3F"/>
<path d="M57.0851 39.9494C54.2992 39.9494 52.0199 39.9494 49.7912 39.9494C48.069 39.9494 48.3729 38.5841 48.3729 37.5727C48.3729 29.7345 48.3729 21.8963 48.3729 14.1087C48.3729 10.2149 48.4236 6.37167 48.3729 2.47787C48.3223 0.859665 49.0314 0.303407 50.6016 0.202269C56.9838 -0.252851 56.9838 -0.30342 56.9838 5.91655C56.9838 11.6308 56.9838 17.3451 56.9838 23.7674C57.8449 22.8066 58.3514 22.3514 58.706 21.7952C61.0866 18.4576 63.4673 15.0695 65.8986 11.732C66.9116 10.316 73.0912 9.35524 74.2562 10.5689C74.6614 11.024 74.5601 12.4905 74.1043 13.1479C71.7743 16.6372 69.343 20.0758 66.861 23.464C65.9493 24.6776 65.9492 25.5373 66.8103 26.8015C69.7988 30.9482 72.686 35.1959 75.9277 39.8989C72.4834 39.8989 69.4949 40 66.5571 39.8483C66.0506 39.7977 65.4934 38.8875 65.0882 38.2806C62.6062 34.5891 60.1242 30.8976 57.1358 27.2566C57.0851 31.3021 57.0851 35.3982 57.0851 39.9494Z" fill="#F13C3F"/>
<path d="M8.40828 39.9494C6.17958 39.9494 3.74827 40.0506 1.31696 39.8483C0.861088 39.7977 0.0506523 38.7864 0.0506523 38.1795C0 29.6334 0 21.0367 0 12.4399C0 10.8217 0.709132 10.1138 2.27935 10.1643C3.2924 10.1643 4.30544 10.2149 5.31849 10.1643C7.24327 10.0126 8.9148 10.2149 9.0161 12.7939C12.9163 11.024 16.6646 9.55752 20.8687 10.5183C24.465 11.3274 26.5418 12.9456 26.947 16.5866C27.3522 19.9747 27.3522 23.464 27.4029 26.9027C27.4535 31.0999 27.4029 35.2971 27.4029 39.9494C24.7183 39.9494 22.2363 40.0506 19.7544 39.8483C19.2985 39.7977 18.64 38.5335 18.64 37.8761C18.5387 32.3135 18.5894 26.7509 18.5894 21.1884C18.5387 17.1934 16.7152 15.9292 12.8657 17.0923C9.11741 18.2554 8.71219 18.8116 8.71219 22.756C8.71219 28.2174 8.66154 33.6789 8.66154 39.1909C8.76284 39.292 8.61088 39.4437 8.40828 39.9494Z" fill="#F13C3F"/>
<path d="M120.755 10.4172C128.91 10.6195 135.545 17.3957 135.343 25.3856C135.14 33.6789 128.302 40.2023 120.097 39.9494C111.688 39.6966 105.407 33.1226 105.661 24.6776C105.863 16.4855 112.499 10.2149 120.755 10.4172ZM120.552 31.201C123.693 31.1505 126.529 28.3186 126.529 25.1833C126.529 21.9469 123.541 19.0139 120.35 19.0645C117.057 19.1656 114.322 22.0481 114.423 25.3856C114.525 28.6726 117.311 31.3022 120.552 31.201Z" fill="#F13C3F"/>
<path d="M147.246 12.3894C149.525 11.6814 151.704 10.9734 153.831 10.3666C155.249 9.96205 155.908 10.6194 155.958 12.0354C156.009 13.8053 155.958 15.5246 155.958 16.9911C153.375 17.7497 151.146 18.4071 148.918 19.115C147.449 19.5701 146.942 20.6321 146.993 22.1997C147.094 27.3577 146.942 32.4652 147.094 37.6232C147.145 39.5449 146.486 40.0505 144.612 40.0505C138.23 40.1011 138.23 40.1517 138.23 33.7294C138.23 26.9026 138.281 20.0758 138.179 13.249C138.129 10.9734 138.888 9.91148 141.218 10.1643C142.029 10.2655 142.89 10.2655 143.751 10.1643C145.676 9.96205 147.145 10.316 147.246 12.3894Z" fill="#F13C3F"/>
<path d="M42.1933 39.7977C39.1035 39.7977 36.3683 39.7977 33.4811 39.7977C33.4305 38.8875 33.3292 38.1795 33.3292 37.421C33.3292 29.2794 33.3798 21.0872 33.2785 12.9456C33.2785 10.8723 34.0383 10.1138 36.115 10.1138C42.8011 10.2149 42.1933 9.45637 42.1933 15.9798C42.1933 23.8179 42.1933 31.6561 42.1933 39.7977Z" fill="#F13C3F"/>
<path d="M168.317 39.9494C165.684 39.9494 163.404 39.8989 161.125 39.9494C159.757 40 159.453 39.2415 159.453 38.0278C159.504 29.5322 159.504 21.0367 159.453 12.5411C159.453 10.8723 160.061 10.0632 161.834 10.1138C169.179 10.2149 168.267 9.35524 168.267 16.3337C168.368 24.0708 168.317 31.8078 168.317 39.9494Z" fill="#F13C3F"/>
<path d="M177.08 39.8988C173.788 39.9494 171.306 37.5727 171.205 34.3363C171.154 31.3021 173.839 28.4703 176.878 28.3691C179.917 28.268 182.601 30.9482 182.652 34.134C182.703 37.5221 180.423 39.8988 177.08 39.8988Z" fill="#F13C3F"/>
</g>
<defs>
<clipPath id="clip0">
<rect width="182.703" height="40" fill="white"/>
</clipPath>
</defs>
</svg>
